{
    "arch": "x86_64",
    "build_id": 23382,
    "buildroot_id": 285154,
    "buildtime": 1596248253,
    "epoch": "None",
    "external_repo_id": 0,
    "external_repo_name": "INTERNAL",
    "extra": "None",
    "id": 592062,
    "metadata_only": false,
    "name": "glibc",
    "payloadhash": "38d2624418afac0837aa2da3559213a9",
    "release": "39.el9",
    "size": 18133806,
    "version": "2.34"
}
